// Jest Snapshot v1, https://goo.gl/fbAQLP

exports[`renders correctly 1`] = `
<View
  style={
    Array [
      Object {
        "backgroundColor": "#fff",
        "flexBasis": 0,
        "flexGrow": 1,
        "flexShrink": 1,
      },
    ]
  }
>
  <View
    style={
      Array [
        Object {
          "backgroundColor": "#fff",
          "flexBasis": 0,
          "flexGrow": 1,
          "flexShrink": 1,
        },
        Object {
          "padding": 16,
        },
      ]
    }
  >
    <Text
      style={
        Array [
          Object {
            "fontSize": 32,
            "fontWeight": "bold",
            "lineHeight": 34,
          },
        ]
      }
    >
      Bebida gelada, rápida a preço baixo
    </Text>
    <Text
      style={
        Array [
          Object {
            "marginTop": 16,
          },
        ]
      }
    >
      Informe o endereço de entrega:
    </Text>
    <TextInput
      allowFontScaling={true}
      autoCapitalize="none"
      autoCorrect={false}
      editable={true}
      placeholder="Digite aqui"
      returnKeyType="done"
      spellCheck={false}
      style={
        Array [
          Object {
            "alignSelf": "stretch",
            "backgroundColor": "#fff",
            "borderColor": "#ccc",
            "borderRadius": 4,
            "borderWidth": 1,
            "height": 36,
            "marginBottom": 16,
            "marginTop": 8,
            "paddingBottom": 4,
            "paddingLeft": 4,
            "paddingRight": 4,
            "paddingTop": 4,
          },
        ]
      }
      underlineColorAndroid="transparent"
    />
    <View
      accessibilityRole="button"
      accessibilityStates={
        Array [
          "disabled",
        ]
      }
      accessible={true}
      isTVSelectable={true}
      onResponderGrant={[Function]}
      onResponderMove={[Function]}
      onResponderRelease={[Function]}
      onResponderTerminate={[Function]}
      onResponderTerminationRequest={[Function]}
      onStartShouldSetResponder={[Function]}
      style={
        Object {
          "opacity": 1,
        }
      }
    >
      <View
        style={
          Array [
            Object {},
            Object {},
          ]
        }
      >
        <Text
          disabled={true}
          style={
            Array [
              Object {
                "color": "#007AFF",
                "fontSize": 18,
                "padding": 8,
                "textAlign": "center",
              },
              Object {
                "color": "#000",
              },
              Object {
                "color": "#cdcdcd",
              },
            ]
          }
        >
          Buscar revendedores
        </Text>
      </View>
    </View>
  </View>
  <View
    style={
      Array [
        Object {
          "backgroundColor": "#ffcc00",
          "paddingBottom": 12,
          "paddingLeft": 12,
          "paddingRight": 12,
          "paddingTop": 12,
          "width": "100%",
        },
      ]
    }
  >
    <Text
      style={
        Array [
          Object {
            "fontSize": 12,
            "textAlign": "right",
          },
        ]
      }
    >
      2018 - Fernando de França 🚛
    </Text>
  </View>
</View>
`;
